{
    "name": "pf2eSheetQOL",
    "title": "pf2eSheetQOL - Character (sheet) QOL for PF2e Game System",
    "description": "Minor changes to support some quality of life adjustments to character sheets",
    "version": "0.1.0",
    "minimumCoreVersion": "0.1.0",
    "compatibleCoreVersion": "0.6.5",
    "author": "LimpingNinja",
    "authors": [
		{
			"name": "LimpingNinja",
			"url": "https://github.com/LimpingNinja"
		}
	],
    "systems": [
        "pf2e"
    ],
    "esmodules": [
        "main.js"
    ],
    "styles": [
        "./styles/adjusted.css"
    ],
    "url": "https://gitlab.com/limpingninja-vtt-stuff/pf2eSheetQOL/",
    "manifest": "https://gitlab.com/limpingninja-vtt-stuff/pf2eSheetQOL/-/raw/master/module.json",
    "download": "https://gitlab.com/limpingninja-vtt-stuff/pf2eSheetQOL/-/archive/master/pf2eSheetQOL-master.zip"
}